downsample the number of individuals sampled — downsample_pairs • CKMRpop
…
# print the result
result
#> $ds_samples
#> # A tibble: 500 × 13
#>    ID        samp_years_list sex   born_year born_pop pop_pre pop_post pop_dur
#>    <chr>     <list>          <chr>     <int>    <int> <chr>   <chr>    <chr>  
#>  1 F10_0_30  <int [1]>       F            10        0 1       NA       NA     
#>  2 F10_0_37  <int [1]>       F            10        0 0       NA       NA     
#>  3 F10_0_50  <int [1]>       F            10        0 0       NA       NA     
#>  4 F10_0_51  <int [1]>       F            10        0 NA      0        NA     
#>  5 F10_0_86  <int [1]>       F            10        0 0       NA       NA     
#>  6 F10_1_104 <int [1]>       F            10        1 1       NA       NA     
#>  7 F10_1_108 <int [1]>       F            10        1 1       NA       NA     
#>  8 F10_1_112 <int [1]>       F            10        1 1       NA       NA     
#>  9 F10_1_12  <int [1]>       F            10        1 1       NA       NA     
#> 10 F10_1_129 <int [1]>       F            10        1 1       NA       NA     
#> # ℹ 490 more rows
#> # ℹ 5 more variables: samp_years_list_pre <list>, samp_years_list_dur <list>,
#> #   samp_years_list_post <list>, ancestors <list>, relatives <list>
#> 
#> $ds_pairs
#> # A tibble: 171 × 33
#>    id_1      id_2      conn_comp dom_relat max_hit dr_hits   upper_member
#>    <chr>     <chr>         <dbl> <chr>       <int> <list>           <int>
#>  1 F10_0_37  F9_0_2            1 Si              1 <int [2]>           NA
#>  2 F10_0_50  F10_0_51          2 Si              1 <int [2]>           NA
#>  3 F10_0_51  M10_0_49          2 Si              1 <int [2]>           NA
#>  4 F10_1_112 M10_1_121         3 Si              1 <int [2]>           NA
#>  5 F10_1_112 M9_1_113          3 Si              1 <int [2]>           NA
#>  6 F10_1_12  M7_1_112          4 PO              1 <int [2]>            2
#>  7 F10_1_129 F13_1_31          5 PO              1 <int [2]>            1
#>  8 F10_1_34  M10_1_24          6 Si              1 <int [2]>           NA
#>  9 F10_1_34  M10_1_27          6 Si              1 <int [2]>           NA
#> 10 F10_2_105 F10_2_108         7 Si              1 <int [2]>           NA
#> # ℹ 161 more rows
#> # ℹ 26 more variables: times_encountered <int>,
#> #   primary_shared_ancestors <list>, psa_tibs <list>, pop_pre_1 <chr>,
#> #   pop_post_1 <chr>, pop_dur_1 <chr>, pop_pre_2 <chr>, pop_post_2 <chr>,
#> #   pop_dur_2 <chr>, sex_1 <chr>, sex_2 <chr>, born_year_1 <int>,
#> #   born_year_2 <int>, samp_years_list_pre_1 <list>, samp_years_list_1 <list>,
#> #   samp_years_list_dur_1 <list>, samp_years_list_post_1 <list>, …
…
