Summarize annual sex-and-age-specific survival rates from the census information — summarize_survival_from_census • CKMRpop
…
    This function does not track migrants.  Another one is eventually
in order that accounts for migrants out of the population.  Also,
the plots here might not play well with multiple populations.

    Examples

result <- summarize_survival_from_census(
  species_1_slurped_results$census_prekill,
  species_1_life_history$`fem-surv-probs`,
  species_1_life_history$`male-surv-probs`
)

# print the results if you want
result$survival_tibble
#> # A tibble: 4,000 × 7
#>     year   pop   age sex        n cohort surv_fract
#>    <int> <int> <int> <chr>  <int>  <int>      <dbl>
#>  1    20     0    20 female     1      0      0    
#>  2    20     0    19 female     2      1      1    
#>  3    21     0    20 female     2      1      0    
#>  4    20     0    18 female     2      2      0.5  
#>  5    21     0    19 female     1      2      1    
#>  6    22     0    20 female     1      2      0    
#>  7    20     0    17 female     3      3      0.667
#>  8    21     0    18 female     2      3      1    
#>  9    22     0    19 female     2      3      1    
#> 10    23     0    20 female     2      3      0    
#> # … with 3,990 more rows
…
