Simulation from species 1 life history • CKMRpop
…
Assess the observed survival rates

We can compute the survival rates like this:

surv_rates <- summarize_survival_from_census(slurped$census_prekill)

That returns a list. One part of the list is a tibble with observed survival fractions. The first 40 rows look like this:

surv_rates$survival_tibble %>%
  slice(1:40)
#> # A tibble: 40 x 7
#>     year   pop   age sex        n cohort surv_fract
#>    <int> <int> <int> <chr>  <int>  <int>      <dbl>
#>  1    20     0    19 female     1      1      0    
#>  2    20     0    18 female     2      2      1    
#>  3    21     0    19 female     2      2      0    
#>  4    20     0    17 female     2      3      0.5  
#>  5    21     0    18 female     1      3      1    
#>  6    22     0    19 female     1      3      0    
#>  7    20     0    16 female     3      4      0.667
#>  8    21     0    17 female     2      4      1    
#>  9    22     0    18 female     2      4      1    
#> 10    23     0    19 female     2      4      0    
#> # … with 30 more rows
…
This is telling us there are 230 half-first-cousin pairs, 161 half-avuncular (aunt/uncle with neice/nephew) pairs, and so forth.

A closer look within the dominant relationships

As noted before, the table able just lists the dominant relationship of each pair. If you want to quickly assess, within those dominant categories, how many specific ancestry match matrices underlie them, you can look at the dr_counts component of the output:

relat_counts$dr_counts
#> # A tibble: 45 x 7
#>    dom_relat dr_hits   max_hit anc_match_matrix      n tot_dom ID              
#>    <chr>     <list>      <int> <list>            <int>   <int> <chr>           
#>  1 FC        <int [2]>       1 <lgl[,7] [7 × 7]>    46     258 001-FC[1,1] - 46
#>  2 FC        <int [2]>       1 <lgl[,7] [7 × 7]>    36     258 002-FC[1,1] - 36
#>  3 FC        <int [2]>       1 <lgl[,7] [7 × 7]>    35     258 003-FC[1,1] - 35
#>  4 FC        <int [2]>       1 <lgl[,7] [7 × 7]>    27     258 004-FC[1,1] - 27
#>  5 FC        <int [2]>       1 <lgl[,7] [7 × 7]>    27     258 005-FC[1,1] - 27
#>  6 FC        <int [2]>       1 <lgl[,7] [7 × 7]>    24     258 006-FC[1,1] - 24
#>  7 FC        <int [2]>       1 <lgl[,7] [7 × 7]>    18     258 007-FC[1,1] - 18
#>  8 FC        <int [2]>       1 <lgl[,7] [7 × 7]>    17     258 008-FC[1,1] - 17
#>  9 FC        <int [2]>       2 <lgl[,7] [7 × 7]>     6     258 009-FC[2,2] - 6 
#> 10 FC        <int [2]>       2 <lgl[,7] [7 × 7]>     6     258 010-FC[2,2] - 6 
#> # … with 35 more rows
…
Tallying all the ancestry match matrices

At times, for example, when looking for the more bizarre relationships, you might just want to visualize all the ancestry match matrices in order of the number of times that they occur. The number of different ancestry match matrices (and the matrices themselves) can be accessed with:

relat_counts$anc_mat_counts
#> # A tibble: 45 x 2
#>    anc_match_matrix      n
#>    <list>            <int>
#>  1 <lgl[,7] [7 × 7]>    46
#>  2 <lgl[,7] [7 × 7]>    37
#>  3 <lgl[,7] [7 × 7]>    36
#>  4 <lgl[,7] [7 × 7]>    36
#>  5 <lgl[,7] [7 × 7]>    35
#>  6 <lgl[,7] [7 × 7]>    35
#>  7 <lgl[,7] [7 × 7]>    32
#>  8 <lgl[,7] [7 × 7]>    27
#>  9 <lgl[,7] [7 × 7]>    27
#> 10 <lgl[,7] [7 × 7]>    26
#> # … with 35 more rows
…
