Return the perimeters of all the relationship zones — relationship_zone_perimeters • CKMRpop
…
ymin: The bottom y value of the zone.

ymax: The top y value of the zone.

area: The area in unit squares of the zone.

xmid: The x midpoint of the zone.

ymid: The y midpoint of the zone.

    Examples

relationship_zone_perimeters()

#> # A tibble: 25 x 9
#>    which_matrix zone   xmin  xmax  ymin  ymax  area  xmid  ymid
#>    <chr>        <chr> <dbl> <dbl> <dbl> <dbl> <dbl> <dbl> <dbl>
#>  1 M1           Se      0.5   1.5   0.5   1.5     1   1     1  
#>  2 M1           PO      1.5   3.5   0.5   1.5     2   2.5   1  
#>  3 M2           PO      0.5   1.5   1.5   3.5     2   1     2.5
#>  4 M1           Si      1.5   3.5   1.5   3.5     4   2.5   2.5
#>  5 M1           GP      3.5   7.5   0.5   1.5     4   5.5   1  
#>  6 M2           GP      0.5   1.5   3.5   7.5     4   1     5.5
#>  7 M1           A       3.5   7.5   1.5   3.5     8   5.5   2.5
#>  8 M2           A       1.5   3.5   3.5   7.5     8   2.5   5.5
#>  9 M1           FC      3.5   7.5   3.5   7.5    16   5.5   5.5
#> 10 M1           GGP     7.5  15.5   0.5   1.5     8  11.5   1  
#> # … with 15 more rows
…
